-------------------------------------------------------------------------------
Test set: TestSuite
-------------------------------------------------------------------------------
Tests run: 3, Failures: 1, Errors: 0, Skipped: 0, Time elapsed: 20.566 sec <<< FAILURE!
testBookingLanguageChange(org.example.TestBooking)  Time elapsed: 4.898 sec  <<< FAILURE!
java.lang.AssertionError: expected [Купити дешеві авіаквитки онлайн на OneTwoTrip.com. Купити квитки на літак дешево.] but found [Поддержка OneTwoTrip]
	at org.testng.Assert.fail(Assert.java:97)
	at org.testng.Assert.assertEqualsImpl(Assert.java:136)
	at org.testng.Assert.assertEquals(Assert.java:118)
	at org.testng.Assert.assertEquals(Assert.java:575)
	at org.testng.Assert.assertEquals(Assert.java:585)
	at org.example.TestBooking.testBookingLanguageChange(TestBooking.java:71)

