<?xml version="1.0" encoding="UTF-8"?>
<testng-results ignored="0" total="2" passed="2" failed="0" skipped="0">
  <reporter-output>
  </reporter-output>
  <suite started-at="2021-03-10T00:03:33 MSK" name="org.example.TestBooking" finished-at="2021-03-10T00:03:46 MSK" duration-ms="13277">
    <groups>
    </groups>
    <test started-at="2021-03-10T00:03:33 MSK" name="Command line test" finished-at="2021-03-10T00:03:46 MSK" duration-ms="13277">
      <class name="org.example.TestBooking">
        <test-method signature="testBookingLanguageChange()[pri:0, instance:org.example.TestBooking@36b4cef0]" started-at="2021-03-10T00:03:33 MSK" name="testBookingLanguageChange" finished-at="2021-03-10T00:03:41 MSK" duration-ms="8594" status="PASS">
          <reporter-output>
          </reporter-output>
        </test-method> <!-- testBookingLanguageChange -->
        <test-method signature="testBookingSupportPage()[pri:0, instance:org.example.TestBooking@36b4cef0]" started-at="2021-03-10T00:03:41 MSK" name="testBookingSupportPage" finished-at="2021-03-10T00:03:46 MSK" duration-ms="4646" status="PASS">
          <reporter-output>
          </reporter-output>
        </test-method> <!-- testBookingSupportPage -->
      </class> <!-- org.example.TestBooking -->
    </test> <!-- Command line test -->
  </suite> <!-- org.example.TestBooking -->
</testng-results>
